id\co\telkomsigma\store\StoreApp.class
id\co\telkomsigma\store\dto\ShoppingCart.class
id\co\telkomsigma\store\dto\Product.class
id\co\telkomsigma\store\dto\CartItem.class
id\co\telkomsigma\store\dto\ProductPhotos.class
id\co\telkomsigma\store\dto\Shipment.class
id\co\telkomsigma\store\backendservice\CatalogService.class
id\co\telkomsigma\store\dto\PurchaseOrder.class
id\co\telkomsigma\store\ctrl\ShoppingController.class
